Properties of the Perfect Popular Song (By Genre)
…
tunes_tab <- read_csv("ultimate-spotify-tracks-db/SpotifyFeatures.csv")
#Remove any incomplete data
tunes_tab <- na.omit(tunes_tab)
#Remove any duplicate song listings
tunes_tab <- tunes_tab[!duplicated(tunes_tab$track_id),]
#Remove track ID column
tunes_tab$track_id <- NULL
#Remove time signature column 
tunes_tab$time_signature <- NULL
#Rearrange dataframe to separate char and double attributes
tunes_tab <- tunes_tab[,c(1, 2, 3, 10, 13, 4, 5, 6, 7, 8, 9, 11, 12, 14, 15, 16)]
#Show a tibble of the new dataframe 
tunes_tab

## # A tibble: 176,774 x 16
##    genre artist_name track_name key   mode  popularity acousticness danceability
##    <chr> <chr>       <chr>      <chr> <chr>      <dbl>        <dbl>        <dbl>
##  1 Movie Henri Salv~ C'est bea~ C#    Major          0      0.611          0.389
##  2 Movie Martin & l~ Perdu d'a~ F#    Minor          1      0.246          0.59 
##  3 Movie Joseph Wil~ Don't Let~ C     Minor          3      0.952          0.663
##  4 Movie Henri Salv~ Dis-moi M~ C#    Major          0      0.703          0.24 
##  5 Movie Fabien Nat~ Ouverture  F     Major          4      0.95           0.331
##  6 Movie Henri Salv~ Le petit ~ C#    Major          0      0.749          0.578
##  7 Movie Martin & l~ Premires~ C#    Major          2      0.344          0.703
##  8 Movie Laura Mayne Let Me Le~ F#    Major         15      0.939          0.416
##  9 Movie Chorus      Helka      C     Major          0      0.00104        0.734
## 10 Movie Le Club de~ Les bisou~ G     Major         10      0.319          0.598
## # ... with 176,764 more rows, and 8 more variables: duration_ms <dbl>,
## #   energy <dbl>, instrumentalness <dbl>, liveness <dbl>, loudness <dbl>,
## #   speechiness <dbl>, tempo <dbl>, valence <dbl>
…
