Properties of the Perfect Pop Song
…
tunes_tab <- na.omit(tunes_tab)
tunes_tab <- tunes_tab[!duplicated(tunes_tab$track_id),]
tunes_tab$time_signature <- NULL
tunes_tab <- tunes_tab[,c(1, 2, 3, 4, 11, 14, 5, 6, 7, 8, 9, 10, 12, 13)]
tunes_tab

## # A tibble: 176,774 x 14
##    genre artist_name track_name track_id key   mode  popularity acousticness
##    <chr> <chr>       <chr>      <chr>    <chr> <chr>      <dbl>        <dbl>
##  1 Movie Henri Salv~ C'est bea~ 0BRjO6g~ C#    Major          0      0.611  
##  2 Movie Martin & l~ Perdu d'a~ 0BjC1Nf~ F#    Minor          1      0.246  
##  3 Movie Joseph Wil~ Don't Let~ 0CoSDzo~ C     Minor          3      0.952  
##  4 Movie Henri Salv~ Dis-moi M~ 0Gc6TVm~ C#    Major          0      0.703  
##  5 Movie Fabien Nat~ Ouverture  0IuslXp~ F     Major          4      0.95   
##  6 Movie Henri Salv~ Le petit ~ 0Mf1jKa~ C#    Major          0      0.749  
##  7 Movie Martin & l~ Premires~ 0NUiKYR~ C#    Major          2      0.344  
##  8 Movie Laura Mayne Let Me Le~ 0PbIF9Y~ F#    Major         15      0.939  
##  9 Movie Chorus      Helka      0ST6uPf~ C     Major          0      0.00104
## 10 Movie Le Club de~ Les bisou~ 0VSqZ3K~ G     Major         10      0.319  
## # ... with 176,764 more rows, and 6 more variables: danceability <dbl>,
## #   duration_ms <dbl>, energy <dbl>, instrumentalness <dbl>, liveness <dbl>,
## #   loudness <dbl>
…
